%YAML 1.1
%TAG !u! tag:unity3d.com,2011:
--- !u!114 &11400000
MonoBehaviour:
  m_ObjectHideFlags: 0
  m_CorrespondingSourceObject: {fileID: 0}
  m_PrefabInstance: {fileID: 0}
  m_PrefabAsset: {fileID: 0}
  m_GameObject: {fileID: 0}
  m_Enabled: 1
  m_EditorHideFlags: 0
  m_Script: {fileID: 11500000, guid: 3de1c3629ca043d89fd5ed5d505a8161, type: 3}
  m_Name: Tunnels
  m_EditorClassIdentifier: 
  <Dialogues>k__BackingField:
  - id: 673128474
    line: You better not believe her.
    speakerIcon: {fileID: 21300000, guid: 3f2e0117e1b492c4da69cbf24457c71a, type: 3}
  - id: 1754791843
    line: But she let me out and promised to help!
    speakerIcon: {fileID: 21300000, guid: 4057ece4119cff941bc6fde74f9e88fb, type: 3}
  - id: 691030052
    line: I wanted to save you, but she was faster and decided to cheat! The cultists
      have called her to lead you to the very beginning of the ritual!
    speakerIcon: {fileID: 21300000, guid: 3f2e0117e1b492c4da69cbf24457c71a, type: 3}
  - id: 183266375
    line: Where should I go then?
    speakerIcon: {fileID: 21300000, guid: 4057ece4119cff941bc6fde74f9e88fb, type: 3}
  - id: 1023077373
    line: Go to the left or right aisle, the cultists have set a trap in the central
      aisle, so they will know exactly where you are.
    speakerIcon: {fileID: 21300000, guid: 3f2e0117e1b492c4da69cbf24457c71a, type: 3}
